Tidy Tuesday 32
…
Visualisation and summaries

Ive decided to explore my data visually / summarize them. There are some beautiful functions available to do this in one line but I am consciously going for ggplot2 solution with tidyr. The approach here is to separate data as either categorical or numerical and then visualize / summarize them.

Categorical

# Looking at all categorical data is better via a simple summary
# There are 10 categorical or character data
us_wind %>%
  select_if(funs(is.character)) %>%
  gather(key = "var_name", value = "var_content") %>%
  group_by(var_name, var_content) %>%
  summarise(total = n())

## # A tibble: 102,818 x 3
## # Groups:   var_name [?]
##    var_name var_content      total
##    <chr>    <chr>            <int>
##  1 faa_asn  1987-AGL-900-OE      1
##  2 faa_asn  1991-ANM-2340-OE     1
##  3 faa_asn  1994-AWP-65-OE       1
##  4 faa_asn  1995-AGL-2285-OE     1
##  5 faa_asn  1995-ASW-1502-OE     1
##  6 faa_asn  1997-ACE-1545-OE     1
##  7 faa_asn  1997-ACE-1546-OE     1
##  8 faa_asn  1997-AGL-3608-OE     8
##  9 faa_asn  1997-ANM-1463-OE    15
## 10 faa_asn  1998-ACE-1038-OE     1
## # ... with 102,808 more rows
…
# I have decreased the total number. The NAs are removed but what seems to be the case now
# is that some values are represented much more than others. I can plot the most common ones
# and check if there's anything strange.

us_wind_NA %>%
  select_if(funs(is.character)) %>%
  gather(key = "var_name", value = "var_content") %>%
  group_by(var_name, var_content) %>%
  summarise(total = n()) %>%
  arrange(desc(total)) %>% 
  filter_all(all_vars(!is.na(.))) %>% # Exclude all NAs
  filter(total == max(total)) # Show most occuring values only

## # A tibble: 33 x 3
## # Groups:   var_name [10]
##    var_name   var_content                            total
##    <chr>      <chr>                                  <int>
##  1 t_img_srce Digital Globe                          27559
##  2 t_manu     GE Wind                                22367
##  3 t_state    TX                                     13232
##  4 t_model    GE1.5-77                                8562
##  5 t_img_date 1/1/2012                                8062
##  6 t_county   Kern County                             4564
##  7 t_fips     06029                                   4564
##  8 p_name     unknown Tehachapi Wind Resource Area 1  1831
##  9 faa_asn    2014-WTW-4834-OE                          76
## 10 faa_ors    18-020814                                  2
## # ... with 23 more rows
…
